{
	"color": "#ffffff80",
	"description": "",
	"display_name": "",
	"display_name_bool": false,
	"id": "character-1642265471.json",
	"mirror_portraits": false,
	"name": "Lucy",
	"nickname": "",
	"nickname_bool": false,
	"offset_x": 0,
	"offset_y": 0,
	"portraits": [
		{
			"name": "Default",
			"path": "res://UI/Characters/Instructor/Normal.png"
		},
		{
			"name": "Angry",
			"path": "res://UI/Characters/Instructor/Angry.png"
		},
		{
			"name": "Annoyed",
			"path": "res://UI/Characters/Instructor/Annoyed.png"
		},
		{
			"name": "Delight",
			"path": "res://UI/Characters/Instructor/Delight.png"
		},
		{
			"name": "Laugh",
			"path": "res://UI/Characters/Instructor/Laugh.png"
		},
		{
			"name": "Sad",
			"path": "res://UI/Characters/Instructor/Sad.png"
		},
		{
			"name": "Shocked",
			"path": "res://UI/Characters/Instructor/Shocked.png"
		},
		{
			"name": "Sleepy",
			"path": "res://UI/Characters/Instructor/Sleepy.png"
		},
		{
			"name": "Smile",
			"path": "res://UI/Characters/Instructor/Smile.png"
		},
		{
			"name": "Smile2",
			"path": "res://UI/Characters/Instructor/Smile2.png"
		},
		{
			"name": "Smug",
			"path": "res://UI/Characters/Instructor/Smug.png"
		}
	],
	"scale": 50
}
