[gd_scene load_steps=2 format=2]

[ext_resource path="res://Wish/WishAudioBus/WishAudioBus.gd" type="Script" id=1]

[node name="WishAudioBus" type="Node"]
script = ExtResource( 1 )
save_bus = PoolStringArray( "Master", "Music", "Sound" )
