[gd_scene load_steps=4 format=2]

[ext_resource path="res://Wish/WishCA/WishCA.gd" type="Script" id=1]
[ext_resource path="res://Wish/WishCA/WishCA.gdshader" type="Shader" id=2]

[sub_resource type="ShaderMaterial" id=1]
shader = ExtResource( 2 )
shader_param/brightness = 1.0
shader_param/contrast = 1.0
shader_param/saturation = 1.0
shader_param/gamma = 1.0

[node name="WishColorAdjust" type="Polygon2D"]
pause_mode = 2
material = SubResource( 1 )
z_index = 4095
z_as_relative = false
script = ExtResource( 1 )
