[gd_scene load_steps=2 format=2]

[ext_resource path="res://Wish/WishMenu/Sub/Audio/AudioSlider.gd" type="Script" id=1]

[node name="AudiodSlider" type="HBoxContainer"]
margin_right = 300.0
margin_bottom = 40.0
script = ExtResource( 1 )
__meta__ = {
"_edit_use_anchors_": false
}

[node name="Name" type="Label" parent="."]
margin_top = 8.0
margin_right = 128.0
margin_bottom = 40.0
rect_min_size = Vector2( 128, 0 )
text = "Label"
align = 2
__meta__ = {
"_edit_use_anchors_": false
}

[node name="Slide" type="HSlider" parent="."]
margin_left = 132.0
margin_top = 15.0
margin_right = 200.0
margin_bottom = 33.0
size_flags_horizontal = 3
size_flags_vertical = 4
max_value = 1.0
step = 0.0
value = 1.0
__meta__ = {
"_edit_use_anchors_": false
}

[node name="Mute" type="Button" parent="."]
margin_left = 204.0
margin_right = 300.0
margin_bottom = 49.0
rect_min_size = Vector2( 96, 0 )
toggle_mode = true
text = "§_MUTE"

[connection signal="value_changed" from="Slide" to="." method="_on_Slide_value_changed"]
[connection signal="toggled" from="Mute" to="." method="_on_Default_toggled"]
