{
	"events": [
		{
			"action": "join",
			"character": "character-1642265471.json",
			"event_id": "dialogic_002",
			"mirror": false,
			"portrait": "Smile",
			"position": {
				"0": false,
				"1": false,
				"2": false,
				"3": false,
				"4": true
			}
		},
		{
			"action": "join",
			"character": "character-1642274838.json",
			"event_id": "dialogic_002",
			"mirror": false,
			"portrait": "Smile1",
			"position": {
				"0": true,
				"1": false,
				"2": false,
				"3": false,
				"4": false
			}
		},
		{
			"character": "character-1642265471.json",
			"event_id": "dialogic_001",
			"portrait": "Smile",
			"text": "§_RANDOM_1_LUCY"
		},
		{
			"character": "character-1642274838.json",
			"event_id": "dialogic_001",
			"portrait": "Smile2",
			"text": "§_RANDOM_2_OLIVER"
		},
		{
			"character": "character-1642265471.json",
			"event_id": "dialogic_001",
			"portrait": "Smug",
			"text": "§_RANDOM_3_LUCY"
		},
		{
			"character": "character-1642274838.json",
			"event_id": "dialogic_001",
			"portrait": "Angry2",
			"text": "§_RANDOM_4_OLIVER"
		}
	],
	"metadata": {
		"dialogic-version": "1.3",
		"file": "timeline-1642886603.json",
		"name": "Random"
	}
}
