{
	"events": [
		{
			"action": "join",
			"character": "character-1642274838.json",
			"event_id": "dialogic_002",
			"mirror": false,
			"portrait": "Smile1",
			"position": {
				"0": true,
				"1": false,
				"2": false,
				"3": false,
				"4": false
			}
		},
		{
			"character": "character-1642274838.json",
			"event_id": "dialogic_001",
			"portrait": "(Don't change)",
			"text": "§_TUTORIAL_1_1_OLIVER"
		},
		{
			"character": "character-1642874295.json",
			"event_id": "dialogic_001",
			"portrait": "",
			"text": "§_TUTORIAL_1_2_PIRATEA"
		},
		{
			"character": "character-1642874308.json",
			"event_id": "dialogic_001",
			"portrait": "",
			"text": "§_TUTORIAL_1_3_PIRATEB"
		},
		{
			"character": "character-1642274838.json",
			"event_id": "dialogic_001",
			"portrait": "Default",
			"text": "§_TUTORIAL_1_4_OLIVER"
		},
		{
			"action": "join",
			"character": "character-1642265471.json",
			"event_id": "dialogic_002",
			"mirror": false,
			"portrait": "Annoyed",
			"position": {
				"0": false,
				"1": false,
				"2": false,
				"3": false,
				"4": true
			}
		},
		{
			"character": "character-1642265471.json",
			"event_id": "dialogic_001",
			"portrait": "",
			"text": "§_TUTORIAL_1_5_LUCY"
		},
		{
			"character": "character-1642274838.json",
			"event_id": "dialogic_001",
			"portrait": "Suprised",
			"text": "§_TUTORIAL_1_6_OLIVER"
		},
		{
			"character": "character-1642265471.json",
			"event_id": "dialogic_001",
			"portrait": "Angry",
			"text": "§_TUTORIAL_1_7_LUCY"
		},
		{
			"character": "character-1642274838.json",
			"event_id": "dialogic_001",
			"portrait": "(Don't change)",
			"text": "§_TUTORIAL_1_8_OLIVER"
		},
		{
			"character": "character-1642265471.json",
			"event_id": "dialogic_001",
			"portrait": "(Don't change)",
			"text": "§_TUTORIAL_1_9_LUCY"
		},
		{
			"character": "character-1642274838.json",
			"event_id": "dialogic_001",
			"portrait": "(Don't change)",
			"text": "§_TUTORIAL_1_10_OLIVER"
		},
		{
			"character": "character-1642274838.json",
			"event_id": "dialogic_001",
			"portrait": "(Don't change)",
			"text": "§_TUTORIAL_1_11_LUCY"
		},
		{
			"character": "character-1642274838.json",
			"event_id": "dialogic_001",
			"portrait": "Angry1",
			"text": "§_TUTORIAL_1_12_OLIVER"
		},
		{
			"character": "character-1642265471.json",
			"event_id": "dialogic_001",
			"portrait": "Annoyed",
			"text": "§_TUTORIAL_1_13_LUCY"
		}
	],
	"metadata": {
		"dialogic-version": "1.3",
		"file": "timeline-1642928967.json",
		"name": "Tutorial1"
	}
}
