[gd_resource type="Shader" format=2]

[resource]
code = "shader_type canvas_item;

uniform sampler2D noise_a;
uniform sampler2D noise_b;
uniform sampler2D noise_c;
uniform vec4 color_dark : hint_color;
uniform vec4 color_normal : hint_color;
uniform vec4 color_light : hint_color;


void fragment()
{
	vec2 noise_a_uv = UV + vec2(1.0, 1.0) * TIME * 0.05;
	vec2 noise_b_uv = UV + vec2(-0.8, 1.1) * TIME * 0.05;
	vec2 noise_c_uv = UV + vec2(-1.2, -0.9) * TIME * 0.05;
	float light = mix(texture(noise_a, noise_a_uv).r, texture(noise_b, noise_b_uv).r, 0.5);
	float dark = mix(texture(noise_a, noise_a_uv).r, texture(noise_c, noise_c_uv).r, 0.5);
	COLOR = mix(color_normal, color_dark, smoothstep(0.40, 0.5, dark) - smoothstep(0.5, 0.6, dark));
	COLOR = mix(COLOR, color_light, smoothstep(0.45, 0.5, light) - smoothstep(0.5, 0.55, light));
}"
